INDEX VERSION 1.129+C:\EDOM\edom\exercise7\.metadata\.plugins\org.eclipse.jdt.core
3210661560.index
713149161.index
3775597504.index
3294003080.index
4013058000.index
3457636172.index
3869610747.index
1495222989.index
3224766489.index
677468828.index
834058803.index
2173563165.index
681365313.index
1538303179.index
3940012904.index
2349126098.index
480157331.index
2561055342.index
1789055132.index
