[comment encoding = UTF-8 /]
[module generateRest('http://www.emftext.org/language/ofbiz')]


[template public generateElement(anEntityResource : EntityResource)]
[comment @main/]
[file (anEntityResource.classFileName(), false, 'UTF-8')]
package restcomponent;

import java.io.IOException;
import java.io.StringReader;
import java.util.List;
import java.util.Map;

import javax.json.Json;
import javax.json.JsonObject;
import javax.json.JsonReader;
import javax.servlet.http.HttpServletRequest;
import javax.ws.rs.FormParam;
import javax.ws.rs.GET;
import javax.ws.rs.POST;
import javax.ws.rs.PUT;
import javax.ws.rs.Path;
import javax.ws.rs.PathParam;
import javax.ws.rs.Produces;
import javax.ws.rs.core.Context;
import javax.ws.rs.core.Response;

@Path("/[anEntityResource.urlPath/]")
public class [anEntityResource.entity.entityName/]Resource {
	@Context
	HttpServletRequest httpRequest;
	
	[for (aRequest : RestRequest | anEntityResource.requests)]
	@[aRequest.action/]
	@Produces("application/json")
	public Response [aRequest.action.toString().toLowerCase()/][anEntityResource.entity.entityName/]([for (aParameter : RestParameter | aRequest.parameters)]@PathParam("[aParameter.name/]") String [aParameter.name/][if(not (aParameter = aRequest.parameters->last()))], [/if][/for]) {
		String username = null;
		String password = null;

		try {
			username = httpRequest.getHeader("login.username");
			password = httpRequest.getHeader("login.password");
		} catch (NullPointerException e) {
			return Response.serverError().entity("Problem reading http header(s): login.username or login.password")
					.build();
		}

		if (username == null || password == null) {
			return Response.serverError().entity("Problem reading http header(s): login.username or login.password")
					.build();
		}

		GenericDelegator delegator = (GenericDelegator) DelegatorFactory.getDelegator("default");

		// TODO Add REST method code here...
	}

	[/for]
}
[/file]
[/template]

[query public classFileName(anEntityResource : EntityResource): String = anEntityResource.entity.entityName.concat('Resource.java')/]