[comment encoding = UTF-8 /]
[module generateServiceJava('http://www.emftext.org/language/ofbiz')]


[template public generateElement(aServices : Services)]
[comment @main/]
[file (aServices.classFileName(), false, 'UTF-8')]
package [aServices.services->first().location/]

import org.apache.ofbiz.entity.Delegator;
import org.apache.ofbiz.service.DispatchContext;
import org.apache.ofbiz.service.ServiceUtil;
import java.util.*;


public class [aServices.description/]{
	[for(aService:Service| aServices.services->select(s|s.engine.toString().equalsIgnoreCase('java'))) separator('\n')]
	public static Map<String, Object> [aService.invoke/](DispatchContext dctx, Map<String, Object> context){
		// Delegator delegator = dctx.getDelegator();
		
		[for(anAttribute:Attribute| aService.attributes->select(a|a.mode.toString().equalsIgnoreCase('IN')))]
		// String [anAttribute.name/] = (String) context.get("[anAttribute.name/]");
		[/for]

		// TODO Service Implementation logic goes here...

		// Map<String, Object> result = ServiceUtil.returnSuccess();
		[for(anAttribute : Attribute | aService.attributes->select(a|a.mode.toString().equalsIgnoreCase('OUT')))]
	 	// result.put("[anAttribute.name/]", [anAttribute.name/]);
		[/for]		
	}
	[/for]
}
[/file]
[/template]

[query public classFileName(aServices: Services): String = aServices.description.concat('.java') /]
